[gd_scene load_steps=3 format=3 uid="uid://615aot7w2rgh"]

[ext_resource type="Script" path="res://tile.gd" id="1_5g3qs"]
[ext_resource type="TileSet" uid="uid://mehin4074l6b" path="res://tiles.tres" id="2_mowj6"]

[node name="Tile" type="Node2D"]
scale = Vector2(0.75, 0.75)
script = ExtResource("1_5g3qs")

[node name="TileMap" type="TileMap" parent="."]
position = Vector2(-82, -71)
tile_set = ExtResource("2_mowj6")
format = 2
