[gd_scene load_steps=2 format=3 uid="uid://1s1ffho6txvk"]

[ext_resource type="Script" path="res://train.gd" id="1_cyhlm"]

[node name="Train" type="Node2D"]
scale = Vector2(0.5, 0.5)
script = ExtResource("1_cyhlm")
